<?xml version="1.0" encoding="iso-8859-1"?>
<!-- Generator: Adobe Illustrator 18.0.0, SVG Export Plug-In . SVG Version: 6.00 Build 0)  -->
<!DOCTYPE svg PUBLIC "-//W3C//DTD SVG 1.1//EN" "http://www.w3.org/Graphics/SVG/1.1/DTD/svg11.dtd">
<svg version="1.1" id="Capa_1" xmlns="http://www.w3.org/2000/svg" xmlns:xlink="http://www.w3.org/1999/xlink" x="0px" y="0px"
	 viewBox="0 0 296.163 296.163" style="enable-background:new 0 0 296.163 296.163;" xml:space="preserve">
<g>
	<circle style="fill:#FFFFFF;" cx="34.582" cy="63.499" r="34.582"/>
	<path style="fill:#FFFFFF;" d="M56.582,242.246h-0.357L52.439,109.74c-5.545,2.149-11.563,3.34-17.857,3.34c-6.294,0-12.313-1.191-17.857-3.34
		l-3.785,132.506h-0.357c-6.903,0-12.5,5.597-12.5,12.5c0,6.903,5.597,12.5,12.5,12.5h44c6.903,0,12.5-5.597,12.5-12.5
		C69.082,247.843,63.485,242.246,56.582,242.246z"/>
	<circle style="fill:#FFFFFF;" cx="261.582" cy="63.499" r="34.582"/>
	<path style="fill:#FFFFFF;" d="M283.582,242.246h-0.357l-3.785-132.506c-5.545,2.149-11.563,3.34-17.857,3.34c-6.294,0-12.313-1.191-17.857-3.34
		l-3.785,132.506h-0.357c-6.903,0-12.5,5.597-12.5,12.5c0,6.903,5.597,12.5,12.5,12.5h44c6.903,0,12.5-5.597,12.5-12.5
		C296.082,247.843,290.485,242.246,283.582,242.246z"/>
	<path style="fill:#FFFFFF;" d="M235.904,121.208c-2.508-4.921-8.528-6.879-13.45-4.37c-46.57,23.728-102.176,23.728-148.744,0
		c-4.92-2.508-10.942-0.551-13.45,4.37c-2.507,4.921-0.551,10.942,4.37,13.45c26.131,13.314,54.786,19.969,83.452,19.969
		c28.658,0,57.327-6.658,83.452-19.969C236.455,132.151,238.411,126.129,235.904,121.208z"/>
</g>
<g>
</g>
<g>
</g>
<g>
</g>
<g>
</g>
<g>
</g>
<g>
</g>
<g>
</g>
<g>
</g>
<g>
</g>
<g>
</g>
<g>
</g>
<g>
</g>
<g>
</g>
<g>
</g>
<g>
</g>
</svg>
